<?xml version="1.0" encoding="UTF-8" standalone="no"?>
<!-- Created with Inkscape (http://www.inkscape.org/) -->

<svg
   width="36.001781mm"
   height="30.284618mm"
   viewBox="0 0 36.001781 30.284618"
   version="1.1"
   id="svg8060"
   inkscape:version="1.1.2 (0a00cf5339, 2022-02-04)"
   sodipodi:docname="head.svg"
   xmlns:inkscape="http://www.inkscape.org/namespaces/inkscape"
   xmlns:sodipodi="http://sodipodi.sourceforge.net/DTD/sodipodi-0.dtd"
   xmlns="http://www.w3.org/2000/svg"
   xmlns:svg="http://www.w3.org/2000/svg">
  <sodipodi:namedview
     id="namedview8062"
     pagecolor="#ffffff"
     bordercolor="#666666"
     borderopacity="1.0"
     inkscape:pageshadow="2"
     inkscape:pageopacity="0.0"
     inkscape:pagecheckerboard="0"
     inkscape:document-units="mm"
     showgrid="false"
     inkscape:zoom="3.9408307"
     inkscape:cx="150.60277"
     inkscape:cy="70.416626"
     inkscape:window-width="1920"
     inkscape:window-height="1016"
     inkscape:window-x="0"
     inkscape:window-y="0"
     inkscape:window-maximized="1"
     inkscape:current-layer="layer1" />
  <defs
     id="defs8057" />
  <g
     inkscape:label="Layer 1"
     inkscape:groupmode="layer"
     id="layer1"
     transform="translate(30.29009,-61.918149)">
    <path
       sodipodi:nodetypes="ccsssc"
       inkscape:connector-curvature="0"
       id="path4780"
       d="M -25.190323,90.162867 0.0384499,90.008765 c 0,-4.886185 2.283276,-14.285123 -0.749965,-17.185065 -2.386888,-2.28201 -9.4005079,0 -12.7493689,0 -3.116701,0 -8.401788,-0.984403 -10.709494,1.019951 -3.322995,2.886191 -1.019945,11.166437 -1.019945,16.319216 z"
       style="fill:#ea9680;fill-opacity:1;fill-rule:evenodd;stroke:none;stroke-width:0.179104" />
    <path
       sodipodi:nodetypes="ccccccccccccccccccccccccccccccccccccccccccccccc"
       inkscape:connector-curvature="0"
       id="path4782"
       d="m 2.6518679,88.481173 -1.019963,3.059853 -1.019927,-2.039903 -1.323493,2.701645 -0.716418,-2.701645 1.019964,-2.0399 h -2.03989 l 1.736344,-2.398112 h -1.019926 l 1.019926,-2.0399 h -1.019926 v -4.079804 c 0,-3.059853 -1.019964,-4.079803 -4.079804,-4.079803 H -23.150449 c -1.911099,-0.128789 0.699672,6.477238 -2.039874,7.139656 l -1.019964,1.019951 1.019964,1.01995 -1.019964,1.01995 1.019964,1.019953 -1.019964,1.01995 1.019964,1.01995 0.240429,1.559065 -0.240429,2.520739 -1.019964,-2.039901 -3.059855,-2.039903 1.019963,-3.059853 -2.039911,-1.01995 1.019948,-1.01995 -1.019948,-1.019951 2.039911,-1.01995 -2.039911,-2.039903 c 2.770047,-1.42757 0.368205,-4.242996 1.019948,-7.139657 l 1.019963,-4.079803 c 1.86813,-4.551926 6.119693,-7.13966 12.239387,-5.099757 l 13.2593869,5.099757 4.079801,2.0399 1.019926,-1.01995 -0.06159,3.415956 3.121414,1.683798 -2.039893,1.019953 v 6.119706 l 2.039893,-1.019955 -2.75631,4.438015 2.039892,-1.019951 -1.019963,3.059854 2.039927,3.05985 z"
       style="fill:#502d16;stroke:none;stroke-width:0.179104" />
    <path
       sodipodi:nodetypes="ccccsccccssccssccccsccccc"
       inkscape:connector-curvature="0"
       id="path4790"
       d="m -14.880482,83.782287 -0.704723,2.839704 c -0.778782,2.725862 -1.721067,2.758263 -2.69004,2.758263 h -5.560546 c -0.934408,0 -1.370939,-0.580745 -1.494198,-0.932993 -1.306208,-3.731977 -1.285613,-3.373363 -1.910884,-4.307056 -0.141724,-0.171318 -0.328316,-0.171318 -0.328316,-0.357918 v -2.600825 c 0,-0.198155 0.02939,-0.198155 0.199146,-0.198155 3.046836,1.2e-4 7.289353,-0.258458 10.063771,0 0.788863,0.07348 1.67939,0.186595 1.865998,0.373195 0.325827,0.325816 0.559792,0.559798 0.932992,0.559798 h 0.933009 c 0.373181,0 0.607163,-0.233982 0.932989,-0.559798 0.186611,-0.1866 1.077135,-0.299712 1.866001,-0.373195 2.7743989,-0.258458 7.0169349,1.2e-4 10.0637679,0 0.169828,0 0.199165,0 0.199165,0.198155 v 2.600825 c 0,0.1866 -0.186608,0.1866 -0.328335,0.357918 -0.625271,0.933693 -0.604673,0.575079 -1.910847,4.307056 -0.123296,0.352248 -0.559789,0.932993 -1.494232,0.932993 h -5.560546 c -0.9689729,0 -1.9112229,-0.0324 -2.6900429,-2.758263 l -0.704739,-2.839704 c -0.186573,-0.373195 -1.492782,-0.373195 -1.67939,0 z"
       style="fill:#502d16;fill-opacity:1;fill-rule:evenodd;stroke:none;stroke-width:0.179104" />
    <path
       style="fill:#00ffff;fill-opacity:1;fill-rule:evenodd;stroke:none;stroke-width:0.179104"
       d="m -12.040746,82.087983 c 0.163843,-0.157134 0.945886,-0.252386 1.638644,-0.31427 1.6006739,-0.142991 1.8683289,-0.04762 3.9185719,0 3.358779,0 4.10518,1.306192 4.10518,3.172182 0.06939,0.182348 -0.533964,1.89801 -0.977533,3.113254 -0.108251,0.29663 -0.491572,0.785678 -1.312174,0.785678 h -4.883102 c -0.8509429,0 -1.6783869,-0.02728 -2.3623139,-2.322745 l -0.618879,-2.391331 c -0.108932,-0.677648 -0.108932,-1.424046 0.491606,-2.042768 z"
       id="path4792"
       inkscape:connector-curvature="0"
       sodipodi:nodetypes="csccsccccc" />
    <path
       sodipodi:nodetypes="csccsccccc"
       inkscape:connector-curvature="0"
       id="path4794"
       d="m -16.122841,82.063617 c -0.16388,-0.157136 -0.945938,-0.252389 -1.638678,-0.314272 -1.600658,-0.142989 -1.868294,-0.04763 -3.918572,0 -3.358782,0 -4.105201,1.306192 -4.105201,3.172182 -0.06935,0.182348 0.534001,1.89801 0.977554,3.113254 0.108267,0.296625 0.491606,0.785678 1.312172,0.785678 h 4.883121 c 0.850926,0 1.678387,-0.02728 2.362334,-2.322748 l 0.61884,-2.391331 c 0.108931,-0.677645 0.108931,-1.424043 -0.49157,-2.042763 z"
       style="fill:#00ffff;fill-opacity:1;fill-rule:evenodd;stroke:none;stroke-width:0.179104" />
    <path
       sodipodi:type="arc"
       style="fill:#000000;fill-opacity:1;stroke:none;stroke-width:2.0397;stroke-miterlimit:4;stroke-dasharray:none;stroke-opacity:1"
       id="path4796"
       sodipodi:cx="-21.527641"
       sodipodi:cy="83.6586"
       sodipodi:rx="0.91329736"
       sodipodi:ry="1.8265947"
       sodipodi:start="0"
       sodipodi:end="5.3894415"
       sodipodi:arc-type="slice"
       d="m -20.614344,83.6586 a 0.91329736,1.8265947 0 0 1 -0.710928,1.781189 0.91329736,1.8265947 0 0 1 -1.025984,-0.991832 0.91329736,1.8265947 0 0 1 0.256249,-2.220732 0.91329736,1.8265947 0 0 1 1.139545,0.0077 l -0.572179,1.42369 z" />
    <path
       sodipodi:end="5.3894415"
       sodipodi:start="0"
       sodipodi:ry="1.8265947"
       sodipodi:rx="0.91329736"
       sodipodi:cy="83.6586"
       sodipodi:cx="-10.053153"
       id="path4798"
       style="fill:#000000;fill-opacity:1;stroke:none;stroke-width:2.0397;stroke-miterlimit:4;stroke-dasharray:none;stroke-opacity:1"
       sodipodi:type="arc"
       sodipodi:arc-type="slice"
       d="m -9.1398557,83.6586 a 0.91329736,1.8265947 0 0 1 -0.7109276,1.781189 0.91329736,1.8265947 0 0 1 -1.0259847,-0.991832 0.91329736,1.8265947 0 0 1 0.25625,-2.220732 0.91329736,1.8265947 0 0 1 1.1395443,0.0077 l -0.5721793,1.42369 z" />
  </g>
</svg>
