<?xml version="1.0" encoding="UTF-8" standalone="no"?>
<!-- Created with Inkscape (http://www.inkscape.org/) -->

<svg
   xmlns:dc="http://purl.org/dc/elements/1.1/"
   xmlns:cc="http://creativecommons.org/ns#"
   xmlns:rdf="http://www.w3.org/1999/02/22-rdf-syntax-ns#"
   xmlns:svg="http://www.w3.org/2000/svg"
   xmlns="http://www.w3.org/2000/svg"
   xmlns:sodipodi="http://sodipodi.sourceforge.net/DTD/sodipodi-0.dtd"
   xmlns:inkscape="http://www.inkscape.org/namespaces/inkscape"
   width="10.58042mm"
   height="48.404579mm"
   viewBox="0 0 10.58042 48.404579"
   version="1.1"
   id="svg3934"
   inkscape:version="0.92.3 (3ce5693, 2018-03-11)"
   sodipodi:docname="letterY.svg">
  <defs
     id="defs3928" />
  <sodipodi:namedview
     id="base"
     pagecolor="#ffffff"
     bordercolor="#666666"
     borderopacity="1.0"
     inkscape:pageopacity="0.0"
     inkscape:pageshadow="2"
     inkscape:zoom="0.7"
     inkscape:cx="-250.81139"
     inkscape:cy="107.58968"
     inkscape:document-units="mm"
     inkscape:current-layer="layer1"
     showgrid="false"
     fit-margin-top="0"
     fit-margin-left="0"
     fit-margin-right="0"
     fit-margin-bottom="0"
     inkscape:window-width="1920"
     inkscape:window-height="1016"
     inkscape:window-x="0"
     inkscape:window-y="27"
     inkscape:window-maximized="1" />
  <metadata
     id="metadata3931">
    <rdf:RDF>
      <cc:Work
         rdf:about="">
        <dc:format>image/svg+xml</dc:format>
        <dc:type
           rdf:resource="http://purl.org/dc/dcmitype/StillImage" />
        <dc:title></dc:title>
      </cc:Work>
    </rdf:RDF>
  </metadata>
  <g
     inkscape:label="Layer 1"
     inkscape:groupmode="layer"
     id="layer1"
     transform="translate(-32.541349,-125.36727)">
    <g
       transform="matrix(0.26458333,0,0,0.26458333,-43.195336,125.81795)"
       id="layer1-56"
       inkscape:label="Layer 1">
      <path
         style="fill:#008dcc;fill-opacity:0.25490196;fill-rule:evenodd;stroke:none"
         d="m 313.40782,123.18547 2.83006,1.88671 -6.66422,23.32477 c -3.33211,16.66055 -6.66422,23.32477 -13.32844,29.98899 l -9.99633,-6.66422 c 6.66422,-6.66422 9.99633,-16.66055 9.99633,-26.65688 l -9.99633,-16.66055 6.66422,-6.66423 6.66422,11.9956 1.33284,2.66569 5.33138,-17.9934 1.14979,0.76653 -0.0112,0.0406 -0.0893,-120.9184469 h 5.71219 l 0.12089,124.7380869 z"
         id="path4770"
         inkscape:connector-curvature="0"
         sodipodi:nodetypes="ccccccccccccccccc" />
      <path
         sodipodi:nodetypes="ccccc"
         inkscape:connector-curvature="0"
         id="rect3500"
         d="m 317.38016,-1.7033669 h 5.71219 V 127.76249 h -5.71219 z"
         style="fill:#deaa87;stroke:none" />
      <path
         sodipodi:nodetypes="ccccccccccc"
         inkscape:connector-curvature="0"
         id="path3359"
         d="m 296.24889,131.26143 9.99633,16.66055 c 0,9.99633 -3.33211,19.99266 -9.99633,26.65688 l 9.99633,6.66422 c 6.66422,-6.66422 9.99633,-13.32844 13.32844,-29.98899 l 6.66422,-23.32477 -9.99633,-6.66423 -5.33138,17.9934 -1.33284,-2.66569 -6.66422,-11.9956 z"
         style="fill:#ffffa5;fill-opacity:1;fill-rule:evenodd;stroke:none" />
    </g>
  </g>
</svg>
