<?xml version="1.0" encoding="UTF-8" standalone="no"?>
<!-- Created with Inkscape (http://www.inkscape.org/) -->

<svg
   xmlns:dc="http://purl.org/dc/elements/1.1/"
   xmlns:cc="http://creativecommons.org/ns#"
   xmlns:rdf="http://www.w3.org/1999/02/22-rdf-syntax-ns#"
   xmlns:svg="http://www.w3.org/2000/svg"
   xmlns="http://www.w3.org/2000/svg"
   xmlns:sodipodi="http://sodipodi.sourceforge.net/DTD/sodipodi-0.dtd"
   xmlns:inkscape="http://www.inkscape.org/namespaces/inkscape"
   width="11.462033mm"
   height="48.404579mm"
   viewBox="0 0 11.462033 48.404579"
   version="1.1"
   id="svg3934"
   inkscape:version="0.92.3 (3ce5693, 2018-03-11)"
   sodipodi:docname="letterA1.svg">
  <defs
     id="defs3928" />
  <sodipodi:namedview
     id="base"
     pagecolor="#ffffff"
     bordercolor="#666666"
     borderopacity="1.0"
     inkscape:pageopacity="0.0"
     inkscape:pageshadow="2"
     inkscape:zoom="0.7"
     inkscape:cx="-866.52017"
     inkscape:cy="308.91194"
     inkscape:document-units="mm"
     inkscape:current-layer="layer1"
     showgrid="false"
     fit-margin-top="0"
     fit-margin-left="0"
     fit-margin-right="0"
     fit-margin-bottom="0"
     inkscape:window-width="1920"
     inkscape:window-height="1016"
     inkscape:window-x="0"
     inkscape:window-y="27"
     inkscape:window-maximized="1" />
  <metadata
     id="metadata3931">
    <rdf:RDF>
      <cc:Work
         rdf:about="">
        <dc:format>image/svg+xml</dc:format>
        <dc:type
           rdf:resource="http://purl.org/dc/dcmitype/StillImage" />
        <dc:title></dc:title>
      </cc:Work>
    </rdf:RDF>
  </metadata>
  <g
     inkscape:label="Layer 1"
     inkscape:groupmode="layer"
     id="layer1"
     transform="translate(-195.44763,-173.73641)">
    <g
       transform="matrix(0.26458333,0,0,0.26458333,65.757131,174.02928)"
       id="layer1-5"
       inkscape:label="Layer 1">
      <path
         sodipodi:nodetypes="ccccccccccccc"
         inkscape:connector-curvature="0"
         id="rect4784"
         d="m 503.85876,-1.1069049 h -5.71219 l -0.33524,127.9088949 -0.97827,0.19949 -6.66422,51.98092 h 9.99633 l 1.99926,-21.32551 4.66496,-1.99926 6.66422,23.32477 h 9.99633 l -16.66055,-53.31377 -3.35545,0.3835 z"
         style="fill:#008dcc;fill-opacity:0.25490196;stroke:none" />
      <path
         sodipodi:nodetypes="ccccc"
         inkscape:connector-curvature="0"
         id="rect3508"
         d="m 507.78943,-1.1069045 h 5.71219 V 133.9569 h -5.71219 z"
         style="fill:#deaa87;fill-opacity:1;stroke:none" />
      <path
         sodipodi:nodetypes="ccccccccc"
         inkscape:connector-curvature="0"
         id="path3382"
         d="m 500.16881,181.83954 h 9.99633 l 1.99926,-21.32551 4.66496,-1.99926 6.66422,23.32477 h 9.99633 l -16.66055,-53.31377 -9.99633,1.33285 z"
         style="fill:#ffffa5;fill-opacity:1;fill-rule:evenodd;stroke:none" />
    </g>
  </g>
</svg>
