<?xml version="1.0" encoding="UTF-8" standalone="no"?>
<!-- Created with Inkscape (http://www.inkscape.org/) -->

<svg
   xmlns:dc="http://purl.org/dc/elements/1.1/"
   xmlns:cc="http://creativecommons.org/ns#"
   xmlns:rdf="http://www.w3.org/1999/02/22-rdf-syntax-ns#"
   xmlns:svg="http://www.w3.org/2000/svg"
   xmlns="http://www.w3.org/2000/svg"
   xmlns:sodipodi="http://sodipodi.sourceforge.net/DTD/sodipodi-0.dtd"
   xmlns:inkscape="http://www.inkscape.org/namespaces/inkscape"
   width="11.9912mm"
   height="48.404579mm"
   viewBox="0 0 11.991201 48.404579"
   version="1.1"
   id="svg3934"
   inkscape:version="0.92.3 (3ce5693, 2018-03-11)"
   sodipodi:docname="letterA2.svg">
  <defs
     id="defs3928" />
  <sodipodi:namedview
     id="base"
     pagecolor="#ffffff"
     bordercolor="#666666"
     borderopacity="1.0"
     inkscape:pageopacity="0.0"
     inkscape:pageshadow="2"
     inkscape:zoom="0.7"
     inkscape:cx="-554.58922"
     inkscape:cy="99.241504"
     inkscape:document-units="mm"
     inkscape:current-layer="layer1"
     showgrid="false"
     fit-margin-top="0"
     fit-margin-left="0"
     fit-margin-right="0"
     fit-margin-bottom="0"
     inkscape:window-width="1920"
     inkscape:window-height="1016"
     inkscape:window-x="0"
     inkscape:window-y="27"
     inkscape:window-maximized="1" />
  <metadata
     id="metadata3931">
    <rdf:RDF>
      <cc:Work
         rdf:about="">
        <dc:format>image/svg+xml</dc:format>
        <dc:type
           rdf:resource="http://purl.org/dc/dcmitype/StillImage" />
        <dc:title></dc:title>
      </cc:Work>
    </rdf:RDF>
  </metadata>
  <g
     inkscape:label="Layer 1"
     inkscape:groupmode="layer"
     id="layer1"
     transform="translate(-112.9159,-123.15848)">
    <path
       sodipodi:nodetypes="ccccccccccccc"
       inkscape:connector-curvature="0"
       id="path3884"
       d="m 117.06719,123.15848 h -1.51135 l -0.0887,33.84256 -0.788,0.0528 -1.76324,13.75329 h 2.64486 l 0.52897,-6.17155 1.76344,0.52937 1.23407,5.64218 h 3.17403 l -4.4081,-14.10594 -0.8878,0.10147 z"
       style="fill:#008dcc;fill-opacity:0.25490196;stroke:none;stroke-width:0.26458332" />
    <path
       sodipodi:nodetypes="ccccc"
       inkscape:connector-curvature="0"
       id="path3886"
       d="m 118.10718,123.15848 h 1.51135 v 35.73563 h -1.51135 z"
       style="fill:#deaa87;fill-opacity:1;stroke:none;stroke-width:0.26458332" />
    <path
       sodipodi:nodetypes="ccccccccc"
       inkscape:connector-curvature="0"
       id="path3888"
       d="m 115.56172,171.56306 h 2.64487 l 0.52897,-6.17154 1.76343,0.52936 1.23408,5.64218 h 3.17403 l -4.40811,-14.10593 -3.17403,0.35265 z"
       style="fill:#ffffa5;fill-opacity:1;fill-rule:evenodd;stroke:none;stroke-width:0.26458332" />
  </g>
</svg>
