<?xml version="1.0" encoding="UTF-8" standalone="no"?>
<!-- Created with Inkscape (http://www.inkscape.org/) -->

<svg
   xmlns:dc="http://purl.org/dc/elements/1.1/"
   xmlns:cc="http://creativecommons.org/ns#"
   xmlns:rdf="http://www.w3.org/1999/02/22-rdf-syntax-ns#"
   xmlns:svg="http://www.w3.org/2000/svg"
   xmlns="http://www.w3.org/2000/svg"
   xmlns:sodipodi="http://sodipodi.sourceforge.net/DTD/sodipodi-0.dtd"
   xmlns:inkscape="http://www.inkscape.org/namespaces/inkscape"
   width="9.8920469mm"
   height="48.404579mm"
   viewBox="0 0 9.8920476 48.404579"
   version="1.1"
   id="svg3934"
   inkscape:version="0.92.3 (3ce5693, 2018-03-11)"
   sodipodi:docname="letterR.svg">
  <defs
     id="defs3928" />
  <sodipodi:namedview
     id="base"
     pagecolor="#ffffff"
     bordercolor="#666666"
     borderopacity="1.0"
     inkscape:pageopacity="0.0"
     inkscape:pageshadow="2"
     inkscape:zoom="0.7"
     inkscape:cx="-428.67832"
     inkscape:cy="222.054"
     inkscape:document-units="mm"
     inkscape:current-layer="layer1"
     showgrid="false"
     fit-margin-top="0"
     fit-margin-left="0"
     fit-margin-right="0"
     fit-margin-bottom="0"
     inkscape:window-width="1920"
     inkscape:window-height="1016"
     inkscape:window-x="0"
     inkscape:window-y="27"
     inkscape:window-maximized="1" />
  <metadata
     id="metadata3931">
    <rdf:RDF>
      <cc:Work
         rdf:about="">
        <dc:format>image/svg+xml</dc:format>
        <dc:type
           rdf:resource="http://purl.org/dc/dcmitype/StillImage" />
        <dc:title></dc:title>
      </cc:Work>
    </rdf:RDF>
  </metadata>
  <g
     inkscape:label="Layer 1"
     inkscape:groupmode="layer"
     id="layer1"
     transform="translate(-79.601973,-155.65262)">
    <g
       transform="matrix(0.26458333,0,0,0.26458333,-63.975264,155.15174)"
       id="layer1-2"
       inkscape:label="Layer 1">
      <path
         style="fill:#008dcc;fill-opacity:0.25490196;fill-rule:evenodd;stroke:none"
         d="m 564.37335,130.49207 0.0296,0.28747 c 0.6694,0.33596 1.05322,0.76781 1.57595,1.22117 2.26483,1.96428 2.66402,3.83415 3.33211,6.66422 0.66809,2.83006 1.23868,7.00589 0,9.99633 -1.23868,2.99043 -6.66422,6.66422 -6.66422,6.66422 l 6.66422,26.65688 h -9.99633 l -7.99706,-29.98899 v 29.98899 l -8.66349,4e-5 v -53.31377 c 0,0 12.74615,-0.18612 15.88994,-0.25656 0.12421,-29.478746 0.11707,-77.259224 0.11707,-113.109194 l 0.0631,-13.4097804 h 5.71219"
         id="path4790"
         inkscape:connector-curvature="0"
         sodipodi:nodetypes="ccszzccccccccccc" />
      <path
         sodipodi:nodetypes="cccccccc"
         inkscape:connector-curvature="0"
         id="rect3510"
         d="m 568.66113,1.8930956 h 5.71219 V 20.469532 135.8782 h -2.8561 -2.85609 V 20.469532 Z"
         style="fill:#deaa87;fill-opacity:1;stroke:none" />
      <path
         sodipodi:nodetypes="cczzzzcccccc"
         inkscape:connector-curvature="0"
         id="path3384"
         d="m 552.65412,184.83954 v -53.31377 c 0,0 9.40222,-0.63713 13.32844,0 3.92623,0.63714 7.7315,1.36784 9.99633,3.33212 2.26484,1.96427 2.66402,3.83415 3.33211,6.66422 0.66809,2.83006 1.23868,7.00589 0,9.99633 -1.23868,2.99043 -6.66422,6.66422 -6.66422,6.66422 l 6.66422,26.65688 h -9.99633 l -7.99706,-29.98899 v 29.98899 z"
         style="fill:#ffffa5;fill-opacity:1;fill-rule:evenodd;stroke:none" />
    </g>
  </g>
</svg>
